Task_4.utf8
…
#Who are they targeting?

attack2017 <- terrorism[terrorism$iyear==2017, ]
by_target <- attack2017 %>% group_by(targtype1_txt) %>% 
  summarise(n=n())

## `summarise()` ungrouping output (override with `.groups` argument)

by_target <- arrange(by_target, desc(n))
by_target

## # A tibble: 22 x 2
##    targtype1_txt                      n
##    <chr>                          <int>
##  1 Private Citizens & Property     2947
##  2 Military                        2352
##  3 Police                          1539
##  4 Unknown                          996
##  5 Government (General)             939
##  6 Business                         772
##  7 Religious Figures/Institutions   233
##  8 Terrorists/Non-State Militia     175
##  9 Utilities                        156
## 10 Educational Institution          150
## # ... with 12 more rows
…
